Celeste Valdivia’s Open Lab Notebook - Nicekl Impacts on Primary Epithelial Cell Cultures of Botryllus schlosseri
…
# Calculate SD
SD_tissue_attached <- cell_fact_filtered %>%
  group_by(hps, treatment_mg_per_L, simple_stage) %>%
  summarise(SD_attached = round(sd(no_attached_tissue, na.rm = TRUE)))

`summarise()` has grouped output by 'hps', 'treatment_mg_per_L'. You can
override using the `.groups` argument.

n <- 4

SE_tissue_attached <- SD_tissue_attached$SD_attached/ sqrt(n)
# Print the calculated mean health scores
print(mean_tissue_attached)

# A tibble: 36 × 5
# Groups:   hps, treatment_mg_per_L [12]
     hps treatment_mg_per_L simple_stage mean_attached num_points
   <int> <fct>              <chr>                <dbl>      <int>
 1     0 0                  C                        4          2
 2     0 0                  TO                       7          1
 3     0 5                  B                        5          1
 4     0 5                  C                        8          2
 5     0 5                  TO                       6          1
 6     0 45                 A                        5          1
 7     0 45                 B                       10          1
 8     0 45                 C                        7          1
 9     0 45                 TO                       5          1
10    18 0                  C                        4          2
# ℹ 26 more rows
…
`summarise()` has grouped output by 'hps', 'treatment_mg_per_L'. You can
override using the `.groups` argument.

n <- 4

SE_mono <- SD_mono_out$SD_mono/ sqrt(n)
# Print the calculated mean health scores
print(mean_mono_out)

# A tibble: 36 × 5
# Groups:   hps, treatment_mg_per_L [12]
     hps treatment_mg_per_L simple_stage no_mono num_points
   <int> <fct>              <chr>          <dbl>      <int>
 1     0 0                  C                  0          2
 2     0 0                  TO                 0          1
 3     0 5                  B                  0          1
 4     0 5                  C                  0          2
 5     0 5                  TO                 0          1
 6     0 45                 A                  0          1
 7     0 45                 B                  0          1
 8     0 45                 C                  0          1
 9     0 45                 TO                 0          1
10    18 0                  C                  0          2
# ℹ 26 more rows
…
`summarise()` has grouped output by 'hps', 'treatment_mg_per_L'. You can
override using the `.groups` argument.

n <- 4

SE_mono_ratio <- SD_ratio_mono_out$SD_ratio_mono/ sqrt(n)
# Print the calculated mean health scores
print(mean_ratio_mono_out)

# A tibble: 36 × 5
# Groups:   hps, treatment_mg_per_L [12]
     hps treatment_mg_per_L simple_stage percent_mean_mono num_points
   <int> <fct>              <chr>                    <dbl>      <int>
 1     0 0                  C                            0          2
 2     0 0                  TO                           0          1
 3     0 5                  B                            0          1
 4     0 5                  C                            0          2
 5     0 5                  TO                           0          1
 6     0 45                 A                            0          1
 7     0 45                 B                            0          1
 8     0 45                 C                            0          1
 9     0 45                 TO                           0          1
10    18 0                  C                            0          2
# ℹ 26 more rows
…
